<?xml version="1.0" encoding="UTF-8"?>
<svg width="10px" height="7px" viewBox="0 0 10 7" version="1.1" xmlns="http://www.w3.org/2000/svg" xmlns:xlink="http://www.w3.org/1999/xlink">
    <!-- Generator: Sketch 47 (45396) - http://www.bohemiancoding.com/sketch -->
    <title>Arrow</title>
    <desc>Created with Sketch.</desc>
    <defs></defs>
    <g id="Symbols" stroke="none" stroke-width="1" fill="none" fill-rule="evenodd">
        <g id="Artboard" transform="translate(-10.000000, -12.000000)" fill="#141414">
            <path d="M19.7827824,12.2194075 C19.4921602,11.9268642 19.0227704,11.9268642 18.7331469,12.2194075 L13.8854489,17.1916416 L11.2668531,14.5557464 C10.9772296,14.264205 10.5078398,14.264205 10.2172176,14.5557464 C9.92759413,14.8482897 9.92759413,15.320166 10.2172176,15.6117075 L13.366124,18.7805925 C13.6557475,19.0731358 14.1251373,19.0731358 14.4147608,18.7805925 L19.7827824,13.2743667 C20.0724059,12.9828252 20.0724059,12.509947 19.7827824,12.2194075" id="Arrow"></path>
        </g>
    </g>
</svg>